Impact of Exercise on Sleep Quality – Vadym Musiienko
…
# Calculate total physical activity duration per user over 2 days and pivot wider
activity_df <- activity_df |>
  group_by(user, activity) |>
  summarise(total_duration = sum(duration, na.rm = TRUE)) |>
  ungroup() |>
  pivot_wider(names_from = activity, values_from = total_duration, 
              values_fill = 0)

# View the results
activity_df

# A tibble: 22 × 4
   user    heavy light medium
   <chr>   <dbl> <dbl>  <dbl>
 1 user_1    130    10     10
 2 user_10    90    40      0
 3 user_11    77     0      0
 4 user_12    95     0     40
 5 user_13   150     0      0
 6 user_14    58     0      0
 7 user_15    70     0    120
 8 user_16    95     0      0
 9 user_17   105     0     70
10 user_18    40     0      0
# ℹ 12 more rows

sleep_df

# A tibble: 21 × 2
   user    avr_sleep_efc
   <chr>           <dbl>
 1 user_1           89.6
 2 user_10          75.1
 3 user_12          94.2
 4 user_13          76.5
 5 user_14          90.8
 6 user_15          89.4
 7 user_16          74.3
 8 user_17          86.9
 9 user_18          84.4
10 user_19          74.1
# ℹ 11 more rows

Now that we have two dataframes with sleep and activity information, we can merge them together by users.

# Merge activity and sleep dataframes based on user
merged_data <- activity_df |> inner_join(sleep_df, by = c("user"))

# View the result
merged_data

# A tibble: 21 × 5
   user    heavy light medium avr_sleep_efc
   <chr>   <dbl> <dbl>  <dbl>         <dbl>
 1 user_1    130    10     10          89.6
 2 user_10    90    40      0          75.1
 3 user_12    95     0     40          94.2
 4 user_13   150     0      0          76.5
 5 user_14    58     0      0          90.8
 6 user_15    70     0    120          89.4
 7 user_16    95     0      0          74.3
 8 user_17   105     0     70          86.9
 9 user_18    40     0      0          84.4
10 user_19    95     0      0          74.1
# ℹ 11 more rows
…
# Create a dataframe with total activity (light, medium, and heavy) for each user
activity <- merged_data |> group_by(user) |> 
  summarize(
    total_exercise = heavy * heavy_multiplier + medium * medium_multiplier + light * light_multiplier, 
    avr_sleep_efc = avr_sleep_efc
  ) |> 
  ungroup()

# View the result
activity

# A tibble: 21 × 3
   user    total_exercise avr_sleep_efc
   <chr>            <dbl>         <dbl>
 1 user_1             420          89.6
 2 user_10            310          75.1
 3 user_12            365          94.2
 4 user_13            450          76.5
 5 user_14            174          90.8
 6 user_15            450          89.4
 7 user_16            285          74.3
 8 user_17            455          86.9
 9 user_18            120          84.4
10 user_19            285          74.1
# ℹ 11 more rows
…
The average time active is 330 minutes, so let’s use it to determine whether a person is active or not.

# Minimum minutes of physical activity to be counted as "active"
active_avr <- 330

# Add a logical column that represents whether a user was active or not
activity <- activity |>
  mutate(active = ifelse(total_exercise > active_avr, "Yes", "No")) 

# View the result
activity

# A tibble: 21 × 4
   user    total_exercise avr_sleep_efc active
   <chr>            <dbl>         <dbl> <chr> 
 1 user_1             420          89.6 Yes   
 2 user_10            310          75.1 No    
 3 user_12            365          94.2 Yes   
 4 user_13            450          76.5 Yes   
 5 user_14            174          90.8 No    
 6 user_15            450          89.4 Yes   
 7 user_16            285          74.3 No    
 8 user_17            455          86.9 Yes   
 9 user_18            120          84.4 No    
10 user_19            285          74.1 No    
# ℹ 11 more rows
…
